<svg width="34" height="33" viewBox="0 0 34 33" fill="none" xmlns="http://www.w3.org/2000/svg">
<path d="M2.0918 21.33C3.58604 26.008 7.16813 29.9243 12.1012 31.5799C20.3229 34.3415 29.186 29.7783 31.8914 21.3857C32.4781 19.5701 32.7272 17.7233 32.676 15.9147" stroke="#171321" stroke-width="0.673684" stroke-miterlimit="10"/>
<path d="M31.8335 11.2158C30.2983 6.63864 26.7503 2.8232 21.8992 1.19198C13.6774 -1.56961 4.81772 2.99362 2.11239 11.3827C1.52902 13.1948 1.27657 15.0382 1.32774 16.8433" stroke="#171321" stroke-width="0.673684" stroke-miterlimit="10"/>
<path d="M5.20981 22.457L2.04392 21.3926L1 24.6239" stroke="#171321" stroke-width="0.673684" stroke-miterlimit="10"/>
<path d="M28.79 10.3116L31.9559 11.376L32.9998 8.14465" stroke="#171321" stroke-width="0.673684" stroke-miterlimit="10"/>
<path d="M16.8735 19.7336C18.735 19.7336 20.2441 18.1935 20.2441 16.2938C20.2441 14.394 18.735 12.8539 16.8735 12.8539C15.012 12.8539 13.5029 14.394 13.5029 16.2938C13.5029 18.1935 15.012 19.7336 16.8735 19.7336Z" stroke="#171321" stroke-width="0.673684" stroke-miterlimit="10"/>
<path d="M19.0603 24.4081C19.7256 24.2203 20.3601 23.9525 20.9469 23.6082L23.0654 25.2185L25.6173 22.6169L24.0377 20.4536C24.3721 19.8553 24.6381 19.2084 24.819 18.5267L27.4322 18.1372V14.4539L24.8155 14.0609C24.6313 13.3792 24.3686 12.7357 24.0343 12.134L25.6138 9.97067L23.062 7.36907L20.9401 8.97942C20.3533 8.63857 19.7187 8.36728 19.0501 8.17946L18.668 5.51178H15.0586L14.6765 8.17946C14.0079 8.36728 13.3733 8.63857 12.7866 8.97942L10.668 7.36907L8.11619 9.97067L9.69572 12.134C9.36139 12.7357 9.09529 13.3827 8.91107 14.0644L6.29785 14.4539V18.1372L8.91107 18.5267C9.09529 19.2084 9.35798 19.8553 9.69572 20.4571L8.11619 22.6204L10.668 25.222L12.7866 23.6117C13.3733 23.9525 14.0079 24.2238 14.6765 24.4116L15.0586 27.0793H18.668" stroke="#171321" stroke-width="0.673684" stroke-miterlimit="10"/>
</svg>
