<svg width="39" height="48" viewBox="0 0 39 48" fill="none" xmlns="http://www.w3.org/2000/svg">
<g clip-path="url(#clip0_126_11982)">
<path d="M32.2202 39.3675H31.9802V43.4853H29.001V33.2326L31.9802 28.6105V38.1769C32.5732 37.4556 34.5711 34.7173 34.5711 34.7173H38.2493L34.7617 38.38L38.3693 43.4923H34.6064L32.2202 39.3675ZM23.9179 38.6951L25.1393 34.7453H28.0902L24.631 43.4573C23.6002 46.0765 22.1247 47.8483 19.9221 47.8483C19.0749 47.8483 18.3619 47.6312 17.9877 47.4211L19.1737 45.6003C19.3502 45.6213 19.5338 45.6283 19.7173 45.6283C20.734 45.6283 21.4964 44.6479 21.9906 43.4853L18.3619 34.7453H21.7011L23.0072 38.6461C23.2614 39.3885 23.4449 40.8031 23.4449 40.8031C23.4449 40.8031 23.6779 39.4375 23.9179 38.6951ZM14.9167 38.4921C14.9167 37.3505 14.4084 36.8113 13.4412 36.8113C12.9682 36.8113 12.474 36.9443 12.1351 37.1474V43.4853H9.15591V34.8294L12.0716 34.5913L12.001 36.0059H12.0998C12.7282 35.1655 13.7942 34.5282 15.0649 34.5282C16.5899 34.5282 17.91 35.4667 17.91 37.6867V43.4853H14.9167V38.4921ZM0.627686 43.0371L0.895957 41.0202C1.82785 41.4754 2.87976 41.6925 3.76223 41.6925C4.40467 41.6925 4.82826 41.4754 4.82826 41.0902C4.82826 39.9837 0.81124 40.2499 0.81124 37.3575C0.81124 35.5087 2.51971 34.5352 4.65882 34.5352C5.72485 34.5352 6.82618 34.8224 7.53921 35.0745L7.24976 37.0564C6.50143 36.7693 5.48482 36.5031 4.63764 36.5031C4.11522 36.5031 3.69163 36.6852 3.69163 37.0214C3.69163 38.1139 7.79337 37.8968 7.79337 40.7191C7.79337 42.5959 6.11314 43.6744 3.81165 43.6744C2.54089 43.6744 1.51016 43.4573 0.627686 43.0371Z" fill="#091C30"/>
<path d="M26.9325 8.35609H12.113C12.113 7.43464 13.4526 4.64927 16.1316 0C16.1316 0 16.5025 2.45201 17.2444 7.35604L21.7718 7.35616L22.8831 0C25.5827 4.71092 26.9325 7.49629 26.9325 8.35609Z" fill="white"/>
<path d="M19.5002 31.6676L9.42358 24.6532V8.2821C9.42358 8.2821 13.1492 6.9162 19.5131 6.9162C25.877 6.9162 29.5754 8.2821 29.5754 8.2821V24.6532L19.5002 31.6676Z" fill="white"/>
<path d="M19.5002 30.6817L10.0674 24.1428V8.93918C10.0674 8.93918 13.5949 7.67068 19.5002 7.67068V30.6817Z" fill="#DBDBDB"/>
<path d="M19.5131 7.67068C19.5087 7.67068 19.5046 7.67081 19.5002 7.67068V30.6623H19.5004L28.8503 24.1424V8.93918C28.8503 8.93918 25.4184 7.67068 19.5131 7.67068Z" fill="#C6C6C6"/>
<path d="M24.6042 27.1043L23.8088 20.2373H19.4373C19.4373 25.6876 19.4373 29.1744 19.4373 30.6976L19.5002 30.7567C21.201 29.6009 22.9023 28.3834 24.6042 27.1043Z" fill="#3B3B63"/>
<path d="M14.3989 27.1585L19.5002 30.7567L19.5027 20.0282H15.0848L14.3989 27.1585Z" fill="#53537A"/>
<path d="M21.683 25.1259C21.683 26.3057 20.5562 26.8906 19.5225 26.8906C18.4887 26.8906 17.3391 26.3057 17.3391 25.1259" fill="#BC9375"/>
<path d="M19.511 25.7361C18.6811 25.7361 18.2776 25.1406 18.2776 23.9166H18.6733C18.6733 25.3496 19.239 25.3496 19.511 25.3496C19.783 25.3496 20.3488 25.3496 20.3488 23.9166H20.7443C20.7443 25.1406 20.3408 25.7361 19.511 25.7361Z" fill="white"/>
<path d="M19.5002 24.2154C19.7556 24.8719 20.2491 25.2001 20.9808 25.2001C21.6973 25.2001 22.4449 24.8314 22.7854 23.9202C23.2609 22.6456 23.2561 20.8716 23.2561 20.8716C23.2561 20.8716 25.3693 18.2854 25.3693 17.4109C25.3693 17.4109 23.413 17.4109 19.5002 17.4109V24.2154Z" fill="#C49A7E"/>
<path d="M13.5459 17.4109C13.5459 18.4236 15.6408 20.8716 15.6408 20.8716C15.6408 20.8716 15.6356 22.6451 16.1117 23.9202C16.4514 24.8308 17.1998 25.2001 17.9163 25.2001C18.6481 25.2001 19.176 24.8719 19.5001 24.2154V17.4109H13.5459Z" fill="#D8B7A0"/>
<path d="M25.1171 11.5877C23.4881 9.9548 23.0807 6.5499 23.0807 6.5499C22.7765 7.62279 22.1154 10.7861 22.1154 10.7861C22.1154 10.7861 20.8314 10.3802 19.4484 10.378C19.403 10.378 19.403 14.6401 19.4484 23.1643L20.7651 22.2339L21.0099 17.7188L22.4119 19.2826L24.2179 19.7986C24.2179 19.7986 24.8937 19.3275 24.8937 19.3293C25.1806 18.9364 25.2757 18.6018 25.3451 18.4282C25.596 17.7964 25.0328 12.965 25.0328 12.965C24.8328 12.5558 25.1171 11.5877 25.1171 11.5877Z" fill="#3B3B63"/>
<path d="M16.9193 10.7859C16.9193 10.7859 16.258 7.62267 15.9541 6.54965C15.9541 6.54965 15.5469 9.95456 13.9177 11.5874C13.9177 11.5874 14.202 12.5557 14.002 12.9647C14.002 12.9647 13.4388 17.7964 13.6896 18.4272C13.7589 18.6009 13.8548 18.9354 14.1413 19.3283C14.1413 19.3265 14.8175 19.7977 14.8175 19.7977L16.6231 19.2816L18.0249 17.7181L18.2703 22.2332L19.5014 23.139V10.3541C18.1132 10.3563 16.9193 10.7859 16.9193 10.7859Z" fill="#53537A"/>
<path d="M23.977 3.39448C24.2473 3.88691 26.5708 8.43936 26.5708 10.0159L25.5402 12.7599C25.7146 14.3082 26.0613 17.6725 25.7996 18.3298C25.6379 18.7364 25.0219 19.5727 24.495 20.25L25.2154 26.6776L24.2416 27.3631L23.7002 22.6667C23.6257 23.1432 23.5138 23.6522 23.3432 24.1091C23.1176 24.714 22.719 25.1723 22.2091 25.4438C22.1792 26.8938 20.8113 27.6761 19.5225 27.6761C18.223 27.6761 16.8437 26.8945 16.8133 25.445C16.3023 25.173 15.9032 24.7146 15.6773 24.1091C15.5135 23.6698 15.4032 23.1834 15.3283 22.7227L14.8104 27.4495L13.8313 26.7528L14.5384 20.2696C14.0073 19.5893 13.3795 18.7405 13.2163 18.3294C12.9546 17.672 13.2878 14.3082 13.4624 12.7596L12.3706 9.91947V9.82692C12.3706 8.25041 14.755 3.88691 15.0256 3.39448L15.7978 2.01199C16.268 5.21507 16.5029 6.81804 16.5026 6.82089L16.8828 9.41648L17.3831 10.2204C17.8637 10.0618 18.6797 9.84163 19.506 9.84163C20.3332 9.84163 21.1547 10.0626 21.6375 10.2209L22.1375 9.4166L23.2208 2.01199L23.977 3.39448ZM19.5225 26.6455C20.0929 26.6455 20.9053 26.3934 21.1081 25.725C21.0863 25.7256 21.0654 25.7274 21.0436 25.7274C20.9326 25.7274 20.8288 25.7172 20.7281 25.7037C20.4339 26.1038 19.9755 26.2251 19.5112 26.2251C19.0476 26.2251 18.5901 26.1026 18.2964 25.7032C18.1951 25.7173 18.0901 25.7274 17.9782 25.7274C17.9568 25.7274 17.9362 25.7256 17.9152 25.725C18.1201 26.3934 18.9434 26.6455 19.5225 26.6455ZM18.8545 25.5469C19.0314 25.6765 19.25 25.7485 19.5115 25.7485C19.7717 25.7485 19.9893 25.676 20.1659 25.5469C20.0251 25.4857 19.8976 25.4128 19.7852 25.3332C19.6835 25.3626 19.5861 25.362 19.511 25.362C19.4356 25.362 19.3372 25.362 19.2347 25.3325C19.1225 25.4128 18.9953 25.4857 18.8545 25.5469ZM22.9077 20.5606C23.6086 19.71 24.6637 18.3401 24.8166 17.9567C24.9318 17.562 24.7352 14.9452 24.485 12.7518L24.4712 12.6302L24.678 12.0854C23.9962 11.3751 23.5205 10.4018 23.1955 9.48275L23.1533 9.77147L22.0768 11.5003L21.6564 11.3252C21.6461 11.3208 20.5485 10.8718 19.5067 10.8718C18.4581 10.8718 17.3783 11.3204 17.3677 11.3248L16.9467 11.5014L15.8689 9.77184L15.837 9.55027C15.5085 10.4604 15.0323 11.4166 14.3537 12.1114L14.5512 12.6306L14.5375 12.7523C14.2871 14.9452 14.0905 17.562 14.2096 17.9667C14.3586 18.3408 15.4138 19.7107 16.1143 20.5606L16.2313 20.7026L16.2306 20.8845C16.2306 20.9016 16.2327 22.5843 16.6697 23.7553C16.987 24.6046 17.6908 24.6954 17.9791 24.6954C18.7038 24.6954 19.0104 24.0456 19.023 24.018C19.1928 23.6915 19.2778 23.1551 19.2778 22.4088H19.7159C19.7159 23.0084 19.8072 23.5459 19.9899 24.0215C20.001 24.045 20.3153 24.697 21.0436 24.697C21.3313 24.697 22.0354 24.6052 22.3524 23.7559C22.7908 22.5808 22.7913 20.9016 22.7913 20.8852L22.7908 20.7032L22.9077 20.5606Z" fill="#333152"/>
<path d="M22.7882 15.9871H21.2056H20.6782V16.0089C20.6782 16.7287 21.3154 17.3118 22.0627 17.3118C22.8103 17.3118 23.4475 16.7285 23.4475 16.0089V15.9871H22.7882Z" fill="#333152"/>
<path d="M21.2058 15.9871V16.0089C21.2058 16.4371 21.5586 16.784 21.9972 16.784C22.4358 16.784 22.7885 16.4371 22.7885 16.0089V15.9871H21.2058Z" fill="white"/>
<path d="M21.8705 15.9871C21.8669 15.9871 21.8638 15.9889 21.8606 15.9895C21.9065 15.9989 21.932 16.1008 21.9221 16.1686C21.9073 16.2722 21.8169 16.3441 21.7134 16.3459C21.7435 16.4813 21.8566 16.5902 22.0067 16.6108C22.1986 16.6374 22.3759 16.5089 22.403 16.3216C22.4226 16.1838 22.3548 15.9871 22.2413 15.9871H21.8705Z" fill="#333152"/>
<path d="M17.695 15.9871H16.1128H15.5852V16.0089C15.5852 16.7287 16.2225 17.3118 16.9697 17.3118C17.7173 17.3118 18.3546 16.7285 18.3546 16.0089V15.9871H17.695Z" fill="#333152"/>
<path d="M16.1128 15.9871V16.0089C16.1128 16.4371 16.4659 16.784 16.9038 16.784C17.3425 16.784 17.6952 16.4371 17.6952 16.0089V15.9871H16.1128Z" fill="white"/>
<path d="M17.1482 15.9871H16.777C16.7737 15.9871 16.7703 15.9889 16.7673 15.9895C16.8132 15.9989 16.8385 16.1008 16.8289 16.1686C16.8139 16.2722 16.724 16.3441 16.6199 16.3459C16.6504 16.4813 16.7634 16.5902 16.9133 16.6108C17.1051 16.6374 17.2828 16.5089 17.3095 16.3216C17.3294 16.1838 17.2616 15.9871 17.1482 15.9871Z" fill="#333152"/>
<path d="M22.629 15.3727C22.7176 15.2779 23.4697 14.4444 22.4638 14.4444C21.5549 14.4444 20.9009 15.1607 20.7275 15.3727H22.629Z" fill="#C49A7E"/>
<path d="M18.2903 15.3727C18.1171 15.1607 17.4631 14.4444 16.5539 14.4444C15.5485 14.4444 16.3006 15.2779 16.3887 15.3727H18.2903Z" fill="#D8B7A0"/>
<path d="M13.4543 9.74304C13.5141 8.9253 14.3852 6.966 15.2161 5.31479L15.4376 6.82453C15.3531 7.38902 14.9671 9.60283 13.9316 10.9983L13.4543 9.74304Z" fill="#D8B7A0"/>
<path d="M23.6021 6.70695L23.8061 5.31491C24.6369 6.966 25.5086 8.92542 25.5683 9.74316L25.1023 10.9686C23.9835 9.43244 23.6324 6.93519 23.6021 6.70695Z" fill="#C49A7E"/>
<mask id="mask0_126_11982" style="mask-type:alpha" maskUnits="userSpaceOnUse" x="17" y="21" width="5" height="3">
<path d="M18.7353 23.3257C18.3451 23.0366 17.9448 22.6718 17.9448 22.3919C17.9448 22.208 18.2777 21.6414 18.2777 21.6414H20.7528C20.7528 21.6414 21.0774 22.1438 21.0774 22.3919C21.0774 22.6525 20.6734 23.0073 20.2702 23.2964C20.133 23.0657 19.9584 23.0256 19.8777 23.2075C19.8361 23.3017 19.8279 23.4374 19.8482 23.5794C19.6287 23.7179 19.4682 23.8072 19.4682 23.8072C19.4682 23.8072 19.3443 23.7365 19.1672 23.6227C19.1958 23.4654 19.1903 23.3113 19.1443 23.2075C19.0629 23.0231 18.8848 23.0668 18.7465 23.3058C18.7427 23.3124 18.739 23.319 18.7353 23.3257Z" fill="white"/>
</mask>
<g mask="url(#mask0_126_11982)">
<path d="M18.7353 23.3257C18.3451 23.0366 17.9448 22.6718 17.9448 22.3919C17.9448 22.208 18.2777 21.6414 18.2777 21.6414H20.7528C20.7528 21.6414 21.0774 22.1438 21.0774 22.3919C21.0774 22.6525 20.6734 23.0073 20.2702 23.2964C20.133 23.0657 19.9584 23.0256 19.8777 23.2075C19.8361 23.3017 19.8279 23.4374 19.8482 23.5794C19.6287 23.7179 19.4682 23.8072 19.4682 23.8072C19.4682 23.8072 19.3443 23.7365 19.1672 23.6227C19.1958 23.4654 19.1903 23.3113 19.1443 23.2075C19.0629 23.0231 18.8848 23.0668 18.7465 23.3058C18.7427 23.3124 18.739 23.319 18.7353 23.3257Z" fill="#333152"/>
</g>
</g>
<defs>
<clipPath id="clip0_126_11982">
<rect width="37.7872" height="48" fill="white" transform="translate(0.606445)"/>
</clipPath>
</defs>
</svg>
