<svg width="234" height="228" viewBox="0 0 234 228" fill="none" xmlns="http://www.w3.org/2000/svg">
<path d="M36.3818 0C-14.5416 54.5986 -11.6565 140.527 42.8322 191.553C97.3209 242.579 183.077 239.665 234 185.09L36.3818 0Z" fill="url(#paint0_linear_289_7782)"/>
<defs>
<linearGradient id="paint0_linear_289_7782" x1="184.625" y1="234.659" x2="-6.97513" y2="43.4443" gradientUnits="userSpaceOnUse">
<stop stop-color="#7759BF" stop-opacity="0"/>
<stop offset="0.14" stop-color="#8263CB" stop-opacity="0.12"/>
<stop offset="0.42" stop-color="#9576E0" stop-opacity="0.32"/>
<stop offset="0.62" stop-color="#A181ED" stop-opacity="0.45"/>
<stop offset="0.74" stop-color="#A686F2" stop-opacity="0.5"/>
</linearGradient>
</defs>
</svg>
