<svg width="20" height="19" viewBox="0 0 20 19" fill="none" xmlns="http://www.w3.org/2000/svg">
<path d="M9.08261 0.594451L8.23268 5.09583C7.95452 6.56139 6.76462 7.69795 5.26566 7.96714L0.614233 8.78965C-0.204788 8.9392 -0.204788 10.0758 0.614233 10.2104L5.26566 11.0329C6.78007 11.302 7.95452 12.4536 8.23268 13.9042L9.08261 18.4056C9.23714 19.1982 10.4116 19.1982 10.5507 18.4056L11.4006 13.9042C11.6787 12.4386 12.8686 11.302 14.3676 11.0329L19.019 10.2104C19.8381 10.0608 19.8381 8.92424 19.019 8.78965L14.3676 7.96714C12.8532 7.69795 11.6787 6.54644 11.4006 5.09583L10.5507 0.594451C10.3961 -0.19815 9.22168 -0.19815 9.08261 0.594451Z" fill="url(#paint0_linear_289_7781)"/>
<defs>
<linearGradient id="paint0_linear_289_7781" x1="14.893" y1="14.4276" x2="5.07304" y2="4.28027" gradientUnits="userSpaceOnUse">
<stop stop-color="#DF4329" stop-opacity="0.9"/>
<stop offset="0.786458" stop-color="#A686F2"/>
</linearGradient>
</defs>
</svg>
