<svg width="127" height="166" viewBox="0 0 127 166" fill="none" xmlns="http://www.w3.org/2000/svg">
<path d="M10.9436 122.581L64.3106 149.766L115.651 122.581V16.2781H10.9436V122.581Z" fill="white"/>
<path d="M116.732 16.6839L9.86279 124.475L65.2564 151.93L116.732 125.557V16.6839Z" fill="#F2F3F2"/>
<path d="M7.43091 51.7125V124.881L9.3224 125.827L62.6894 153.012L64.3107 153.823L65.932 153.012L117.408 125.827L119.299 124.881V12.7617H7.43091V51.7125ZM10.9437 122.852V16.2781H115.786V122.852L64.3107 150.036L10.9437 122.852Z" fill="#DCDEDC"/>
<path d="M63.3649 18.0363C63.9053 18.0363 64.4457 18.0363 64.9861 18.1716L63.3649 21.2822C60.933 21.147 58.7713 23.0404 58.6361 25.4748C58.501 27.9093 60.3925 30.0732 62.8244 30.2084H63.3649C64.4457 30.2084 65.5266 29.8027 66.3372 29.1265L68.0936 32.1019C66.7425 33.0486 65.1213 33.5896 63.3649 33.5896C59.0415 33.7248 55.3936 30.4789 55.2585 26.1511C55.1234 21.8232 58.3659 18.1716 62.6893 18.0363H63.3649ZM68.9042 24.6634L70.9308 28.0445L68.9042 31.2904L67.0127 28.0445H63.0947L65.1213 24.6634H68.9042ZM65.6617 23.4462C65.6617 22.9052 65.7968 22.3642 66.067 21.9584C66.3372 21.5527 66.8776 21.147 67.283 20.8765L67.5532 20.7412C68.0936 20.4707 68.2287 20.3355 68.2287 20.065C68.2287 19.7945 67.8234 19.524 67.5532 19.524C67.0127 19.524 66.6074 19.7945 66.3372 20.3355L65.6617 19.6593C65.7968 19.3888 66.067 19.1183 66.3372 18.8478C66.7425 18.5773 67.1478 18.5773 67.5532 18.5773C67.9585 18.5773 68.4989 18.7125 68.7691 18.983C69.0393 19.2535 69.3095 19.6593 69.3095 20.065C69.3095 20.7412 68.9042 21.2822 68.0936 21.5527L67.6883 21.8232C67.2829 22.0937 67.0127 22.2289 66.8776 22.6347H69.3095V23.5814L65.6617 23.4462ZM63.3649 40.3519L76.2 33.0486V12.7617H50.3947V32.9134L63.3649 40.3519Z" fill="#FF492C"/>
<path d="M121.866 88.2289H4.86381L0.540405 97.6961L4.86381 107.163H121.866L126.054 97.6961L121.866 88.2289Z" fill="#2690CE"/>
<path d="M38.5458 82.1429C38.4378 82.1429 38.3702 82.0888 38.3432 81.9806L37.8568 80.3847C37.8298 80.3486 37.8028 80.3306 37.7757 80.3306H33.7766C33.7496 80.3306 33.7226 80.3486 33.6955 80.3847L33.2362 81.9806C33.2001 82.0888 33.1281 82.1429 33.02 82.1429H30.9664C30.8943 82.1429 30.8448 82.1248 30.8178 82.0888C30.7817 82.0527 30.7772 81.9941 30.8043 81.913L34.3035 70.9445C34.3305 70.8363 34.3981 70.7822 34.5062 70.7822H37.0597C37.1678 70.7822 37.2353 70.8363 37.2623 70.9445L40.7751 81.913C40.7841 81.94 40.7886 81.9671 40.7886 81.9941C40.7886 82.0933 40.7301 82.1429 40.613 82.1429H38.5458ZM34.29 78.4642C34.272 78.5273 34.29 78.5589 34.344 78.5589H37.2083C37.2713 78.5589 37.2894 78.5273 37.2623 78.4642L35.8032 73.6359C35.7942 73.5908 35.7807 73.5728 35.7627 73.5818C35.7356 73.5908 35.7176 73.6089 35.7086 73.6359L34.29 78.4642ZM46.963 70.9716C46.963 70.9175 46.981 70.8724 47.017 70.8363C47.053 70.8002 47.0981 70.7822 47.1521 70.7822H49.0571C49.1112 70.7822 49.1562 70.8002 49.1922 70.8363C49.2283 70.8724 49.2463 70.9175 49.2463 70.9716V81.9535C49.2463 82.0076 49.2283 82.0527 49.1922 82.0888C49.1562 82.1248 49.1112 82.1429 49.0571 82.1429H47.1521C47.0981 82.1429 47.053 82.1248 47.017 82.0888C46.981 82.0527 46.963 82.0076 46.963 81.9535V81.4125C46.963 81.3765 46.954 81.3584 46.936 81.3584C46.9089 81.3494 46.8864 81.3584 46.8684 81.3855C46.409 81.9806 45.7876 82.2781 45.0039 82.2781C44.2473 82.2781 43.5943 82.0662 43.0449 81.6425C42.5045 81.2187 42.1127 80.6371 41.8695 79.8978C41.6893 79.3388 41.5993 78.6851 41.5993 77.9367C41.5993 77.1703 41.6938 76.4986 41.883 75.9216C42.1352 75.2363 42.527 74.6908 43.0584 74.2851C43.5988 73.8793 44.2608 73.6765 45.0445 73.6765C45.8281 73.6765 46.4361 73.947 46.8684 74.488C46.8864 74.515 46.9089 74.524 46.936 74.515C46.954 74.506 46.963 74.4834 46.963 74.4474V70.9716ZM46.6252 79.6138C46.8414 79.208 46.9495 78.6625 46.9495 77.9773C46.9495 77.247 46.8279 76.6789 46.5847 76.2732C46.3415 75.8494 45.9812 75.6375 45.5038 75.6375C44.9994 75.6375 44.6166 75.8494 44.3554 76.2732C44.0852 76.688 43.9501 77.2605 43.9501 77.9908C43.9501 78.64 44.0627 79.181 44.2879 79.6138C44.5581 80.0736 44.9589 80.3035 45.4903 80.3035C45.9767 80.3035 46.355 80.0736 46.6252 79.6138ZM54.6505 82.2781C53.7408 82.2781 52.9617 82.0392 52.3132 81.5613C51.6647 81.0834 51.2233 80.4343 50.9891 79.6138C50.836 79.0998 50.7595 78.5453 50.7595 77.9503C50.7595 77.3191 50.836 76.7466 50.9891 76.2326C51.2323 75.4302 51.6782 74.8035 52.3267 74.3527C52.9752 73.9019 53.7543 73.6765 54.664 73.6765C55.5467 73.6765 56.3033 73.8974 56.9338 74.3392C57.5643 74.79 58.0057 75.4166 58.2579 76.2191C58.438 76.7601 58.5281 77.3281 58.5281 77.9232C58.5281 78.5093 58.4515 79.0548 58.2984 79.5597C58.0552 80.4072 57.6139 81.0699 56.9744 81.5478C56.3349 82.0347 55.5602 82.2781 54.6505 82.2781ZM54.6505 80.3035C55.0018 80.3035 55.3035 80.1953 55.5557 79.9789C55.8079 79.7625 55.9881 79.465 56.0962 79.0863C56.1772 78.7437 56.2178 78.365 56.2178 77.9503C56.2178 77.4994 56.1772 77.1162 56.0962 76.8007C55.9701 76.431 55.7854 76.147 55.5422 75.9486C55.29 75.7412 54.9883 75.6375 54.637 75.6375C54.2677 75.6375 53.9615 75.7412 53.7183 75.9486C53.4751 76.147 53.2995 76.431 53.1914 76.8007C53.1013 77.0621 53.0563 77.4453 53.0563 77.9503C53.0563 78.4371 53.0968 78.8158 53.1779 79.0863C53.286 79.465 53.4661 79.7625 53.7183 79.9789C53.9705 80.1953 54.2812 80.3035 54.6505 80.3035ZM67.4451 76.0433C67.6342 76.5933 67.7288 77.2425 67.7288 77.9908C67.7288 78.7392 67.6252 79.4154 67.4181 80.0195C67.1749 80.7138 66.7831 81.2638 66.2427 81.6695C65.7112 82.0753 65.0492 82.2781 64.2566 82.2781C63.482 82.2781 62.8785 82.0076 62.4462 81.4666C62.4282 81.4306 62.4056 81.4171 62.3786 81.4261C62.3606 81.4351 62.3516 81.4576 62.3516 81.4937V84.9695C62.3516 85.0236 62.3336 85.0687 62.2976 85.1048C62.2525 85.1408 62.203 85.1589 62.1489 85.1589H60.2574C60.2034 85.1589 60.1584 85.1408 60.1223 85.1048C60.0863 85.0687 60.0683 85.0236 60.0683 84.9695V74.0011C60.0683 73.947 60.0863 73.8974 60.1223 73.8523C60.1584 73.8162 60.2034 73.7982 60.2574 73.7982H62.1489C62.203 73.7982 62.2525 73.8162 62.2976 73.8523C62.3336 73.8974 62.3516 73.947 62.3516 74.0011V74.5285C62.3516 74.5646 62.3606 74.5826 62.3786 74.5826C62.4056 74.5916 62.4282 74.5871 62.4462 74.5691C62.8965 73.974 63.5225 73.6765 64.3241 73.6765C65.0717 73.6765 65.7202 73.8839 66.2697 74.2986C66.8101 74.7134 67.2019 75.2949 67.4451 76.0433ZM64.9591 79.6814C65.2294 79.2576 65.3645 78.6806 65.3645 77.9503C65.3645 77.274 65.2519 76.733 65.0267 76.3273C64.7745 75.8675 64.3737 75.6375 63.8243 75.6375C63.3289 75.6375 62.9551 75.8675 62.7029 76.3273C62.4777 76.724 62.3651 77.274 62.3651 77.9773C62.3651 78.6986 62.4822 79.2576 62.7164 79.6543C62.9686 80.0871 63.3379 80.3035 63.8243 80.3035C64.3106 80.3035 64.6889 80.0962 64.9591 79.6814ZM73.9842 75.4347C73.9842 75.4888 73.9662 75.5384 73.9302 75.5834C73.8942 75.6195 73.8491 75.6375 73.7951 75.6375H72.2414C72.1873 75.6375 72.1603 75.6646 72.1603 75.7187V79.1539C72.1603 79.5146 72.2324 79.7806 72.3765 79.9519C72.5206 80.1232 72.7548 80.2089 73.079 80.2089H73.6195C73.6735 80.2089 73.7185 80.2269 73.7546 80.263C73.7906 80.308 73.8086 80.3576 73.8086 80.4117V81.9535C73.8086 82.0707 73.7456 82.1384 73.6195 82.1564C73.1601 82.1834 72.8358 82.197 72.6467 82.197C71.746 82.197 71.075 82.0482 70.6336 81.7507C70.1923 81.4531 69.9671 80.8896 69.9581 80.0601V75.7187C69.9581 75.6646 69.9311 75.6375 69.877 75.6375H68.9448C68.8907 75.6375 68.8457 75.6195 68.8097 75.5834C68.7736 75.5384 68.7556 75.4888 68.7556 75.4347V74.0011C68.7556 73.947 68.7736 73.8974 68.8097 73.8523C68.8457 73.8162 68.8907 73.7982 68.9448 73.7982H69.877C69.9311 73.7982 69.9581 73.7712 69.9581 73.7171V71.783C69.9581 71.7289 69.9761 71.6839 70.0121 71.6478C70.0481 71.6117 70.0932 71.5937 70.1472 71.5937H71.9577C72.0117 71.5937 72.0612 71.6117 72.1063 71.6478C72.1423 71.6839 72.1603 71.7289 72.1603 71.783V73.7171C72.1603 73.7712 72.1873 73.7982 72.2414 73.7982H73.7951C73.8491 73.7982 73.8942 73.8162 73.9302 73.8523C73.9662 73.8974 73.9842 73.947 73.9842 74.0011V75.4347ZM76.6053 72.865C76.236 72.865 75.9298 72.7433 75.6866 72.4998C75.4434 72.2564 75.3218 71.9498 75.3218 71.5802C75.3218 71.2015 75.4389 70.8904 75.6731 70.647C75.9163 70.4125 76.227 70.2953 76.6053 70.2953C76.9836 70.2953 77.2899 70.4125 77.524 70.647C77.7582 70.8904 77.8753 71.2015 77.8753 71.5802C77.8753 71.9498 77.7537 72.2564 77.5105 72.4998C77.2673 72.7433 76.9656 72.865 76.6053 72.865ZM75.6325 82.1429C75.5785 82.1429 75.529 82.1248 75.4839 82.0888C75.4479 82.0527 75.4299 82.0076 75.4299 81.9535V73.974C75.4299 73.9199 75.4479 73.8748 75.4839 73.8388C75.529 73.8027 75.5785 73.7847 75.6325 73.7847H77.524C77.5781 73.7847 77.6231 73.8027 77.6591 73.8388C77.6952 73.8748 77.7132 73.9199 77.7132 73.974V81.9535C77.7132 82.0076 77.6952 82.0527 77.6591 82.0888C77.6231 82.1248 77.5781 82.1429 77.524 82.1429H75.6325ZM83.185 82.2781C82.2753 82.2781 81.4962 82.0392 80.8477 81.5613C80.1991 81.0834 79.7578 80.4343 79.5236 79.6138C79.3705 79.0998 79.2939 78.5453 79.2939 77.9503C79.2939 77.3191 79.3705 76.7466 79.5236 76.2326C79.7668 75.4302 80.2127 74.8035 80.8612 74.3527C81.5097 73.9019 82.2888 73.6765 83.1985 73.6765C84.0812 73.6765 84.8378 73.8974 85.4683 74.3392C86.0988 74.79 86.5401 75.4166 86.7923 76.2191C86.9725 76.7601 87.0626 77.3281 87.0626 77.9232C87.0626 78.5093 86.986 79.0548 86.8329 79.5597C86.5897 80.4072 86.1483 81.0699 85.5088 81.5478C84.8693 82.0347 84.0947 82.2781 83.185 82.2781ZM83.185 80.3035C83.5363 80.3035 83.838 80.1953 84.0902 79.9789C84.3424 79.7625 84.5225 79.465 84.6306 79.0863C84.7117 78.7437 84.7522 78.365 84.7522 77.9503C84.7522 77.4994 84.7117 77.1162 84.6306 76.8007C84.5045 76.431 84.3199 76.147 84.0767 75.9486C83.8245 75.7412 83.5228 75.6375 83.1715 75.6375C82.8022 75.6375 82.496 75.7412 82.2528 75.9486C82.0096 76.147 81.8339 76.431 81.7258 76.8007C81.6358 77.0621 81.5907 77.4453 81.5907 77.9503C81.5907 78.4371 81.6313 78.8158 81.7123 79.0863C81.8204 79.465 82.0006 79.7625 82.2528 79.9789C82.505 80.1953 82.8157 80.3035 83.185 80.3035ZM92.8721 73.6765C93.7368 73.6765 94.4349 73.938 94.9663 74.4609C95.4977 74.9929 95.7634 75.7142 95.7634 76.6248V81.9535C95.7634 82.0076 95.7454 82.0527 95.7094 82.0888C95.6733 82.1248 95.6283 82.1429 95.5742 82.1429H93.6693C93.6152 82.1429 93.5702 82.1248 93.5341 82.0888C93.4981 82.0527 93.4801 82.0076 93.4801 81.9535V77.0982C93.4801 76.6654 93.3585 76.3138 93.1153 76.0433C92.8721 75.7728 92.5479 75.6375 92.1425 75.6375C91.7462 75.6375 91.4265 75.7728 91.1833 76.0433C90.9401 76.3138 90.8185 76.6654 90.8185 77.0982V81.9535C90.8185 82.0076 90.8005 82.0527 90.7645 82.0888C90.7284 82.1248 90.6834 82.1429 90.6294 82.1429H88.7243C88.6703 82.1429 88.6253 82.1248 88.5892 82.0888C88.5532 82.0527 88.5352 82.0076 88.5352 81.9535V74.0011C88.5352 73.947 88.5532 73.8974 88.5892 73.8523C88.6253 73.8162 88.6703 73.7982 88.7243 73.7982H90.6294C90.6834 73.7982 90.7284 73.8162 90.7645 73.8523C90.8005 73.8974 90.8185 73.947 90.8185 74.0011V74.5691C90.8185 74.5962 90.8275 74.6142 90.8455 74.6232C90.8725 74.6412 90.8906 74.6367 90.8996 74.6097C91.3409 73.9875 91.9984 73.6765 92.8721 73.6765ZM23.7247 54.7421C23.7247 54.688 23.7427 54.6429 23.7787 54.6068C23.8148 54.5707 23.8598 54.5527 23.9138 54.5527H25.8053C25.8594 54.5527 25.9089 54.5707 25.9539 54.6068C25.99 54.6429 26.008 54.688 26.008 54.7421V65.724C26.008 65.7781 25.99 65.8232 25.9539 65.8593C25.9089 65.8953 25.8594 65.9134 25.8053 65.9134H23.9138C23.8598 65.9134 23.8148 65.8953 23.7787 65.8593C23.7427 65.8232 23.7247 65.7781 23.7247 65.724V61.2339C23.7247 61.1798 23.6977 61.1527 23.6436 61.1527H20.0498C19.9957 61.1527 19.9687 61.1798 19.9687 61.2339V65.724C19.9687 65.7781 19.9507 65.8232 19.9147 65.8593C19.8787 65.8953 19.8336 65.9134 19.7796 65.9134H17.8881C17.834 65.9134 17.7845 65.8953 17.7395 65.8593C17.7034 65.8232 17.6854 65.7781 17.6854 65.724V54.7421C17.6854 54.688 17.7034 54.6429 17.7395 54.6068C17.7845 54.5707 17.834 54.5527 17.8881 54.5527H19.7796C19.8336 54.5527 19.8787 54.5707 19.9147 54.6068C19.9507 54.6429 19.9687 54.688 19.9687 54.7421V59.1105C19.9687 59.1646 19.9957 59.1916 20.0498 59.1916H23.6436C23.6977 59.1916 23.7247 59.1646 23.7247 59.1105V54.7421ZM28.9533 56.6355C28.584 56.6355 28.2778 56.5138 28.0346 56.2703C27.7914 56.0269 27.6698 55.7203 27.6698 55.3507C27.6698 54.972 27.7914 54.6609 28.0346 54.4175C28.2688 54.183 28.575 54.0658 28.9533 54.0658C29.3316 54.0658 29.6423 54.183 29.8855 54.4175C30.1197 54.6609 30.2368 54.972 30.2368 55.3507C30.2368 55.7203 30.1152 56.0269 29.872 56.2703C29.6288 56.5138 29.3226 56.6355 28.9533 56.6355ZM27.9805 65.9134C27.9265 65.9134 27.8815 65.8953 27.8454 65.8593C27.8094 65.8232 27.7914 65.7781 27.7914 65.724V57.7445C27.7914 57.6904 27.8094 57.6453 27.8454 57.6093C27.8815 57.5732 27.9265 57.5552 27.9805 57.5552H29.8855C29.9396 57.5552 29.9846 57.5732 30.0206 57.6093C30.0567 57.6453 30.0747 57.6904 30.0747 57.7445V65.724C30.0747 65.7781 30.0567 65.8232 30.0206 65.8593C29.9846 65.8953 29.9396 65.9134 29.8855 65.9134H27.9805ZM36.9516 57.7716C36.9516 57.7175 36.9696 57.6679 37.0056 57.6228C37.0417 57.5867 37.0867 57.5687 37.1407 57.5687H39.0457C39.0998 57.5687 39.1448 57.5867 39.1808 57.6228C39.2169 57.6679 39.2349 57.7175 39.2349 57.7716V65.1695C39.2349 66.5851 38.8251 67.5949 38.0054 68.199C37.1948 68.8031 36.1455 69.1052 34.8574 69.1052C34.4791 69.1052 34.0558 69.0781 33.5874 69.024C33.4794 69.015 33.4253 68.9474 33.4253 68.8212L33.4929 67.1441C33.4929 67.0089 33.5694 66.9502 33.7225 66.9683C34.1099 67.0314 34.4656 67.063 34.7899 67.063C35.4834 67.063 36.0149 66.9142 36.3841 66.6166C36.7624 66.3101 36.9516 65.8232 36.9516 65.156C36.9516 65.1199 36.9381 65.0974 36.9111 65.0884C36.893 65.0884 36.875 65.0974 36.857 65.1154C36.4427 65.5572 35.8392 65.7781 35.0466 65.7781C34.344 65.7781 33.7 65.6113 33.1146 65.2777C32.5291 64.9351 32.1103 64.3851 31.8581 63.6277C31.696 63.1318 31.6149 62.4871 31.6149 61.6937C31.6149 60.8462 31.714 60.1609 31.9121 59.638C32.1373 58.9707 32.5201 58.4388 33.0605 58.0421C33.601 57.6453 34.2269 57.447 34.9385 57.447C35.7672 57.447 36.4067 57.6949 36.857 58.1908C36.875 58.2089 36.893 58.2179 36.9111 58.2179C36.9381 58.2089 36.9516 58.1863 36.9516 58.1502V57.7716ZM36.8165 63.0056C36.9066 62.681 36.9516 62.2392 36.9516 61.6802C36.9516 61.3466 36.9381 61.0851 36.9111 60.8957C36.893 60.7154 36.857 60.5441 36.803 60.3818C36.7039 60.0843 36.5418 59.8498 36.3166 59.6785C36.0914 59.4982 35.8122 59.408 35.4789 59.408C35.1547 59.408 34.8755 59.4982 34.6413 59.6785C34.4161 59.8498 34.2495 60.0843 34.1414 60.3818C33.9883 60.7064 33.9117 61.1437 33.9117 61.6937C33.9117 62.2978 33.9793 62.7306 34.1144 62.9921C34.2134 63.2806 34.3846 63.515 34.6278 63.6953C34.871 63.8757 35.1592 63.9658 35.4924 63.9658C35.8347 63.9658 36.1184 63.8757 36.3436 63.6953C36.5778 63.515 36.7354 63.2851 36.8165 63.0056ZM45.2201 57.447C46.0848 57.447 46.7828 57.7084 47.3143 58.2314C47.8367 58.7634 48.0979 59.4847 48.0979 60.3953V65.724C48.0979 65.7781 48.0799 65.8232 48.0438 65.8593C48.0078 65.8953 47.9628 65.9134 47.9087 65.9134H46.0172C45.9632 65.9134 45.9137 65.8953 45.8686 65.8593C45.8326 65.8232 45.8146 65.7781 45.8146 65.724V60.8687C45.8146 60.4359 45.693 60.0843 45.4498 59.8138C45.2066 59.5433 44.8868 59.408 44.4905 59.408C44.0852 59.408 43.761 59.5433 43.5178 59.8138C43.2746 60.0843 43.153 60.4359 43.153 60.8687V65.724C43.153 65.7781 43.135 65.8232 43.0989 65.8593C43.0629 65.8953 43.0179 65.9134 42.9638 65.9134H41.0723C41.0183 65.9134 40.9688 65.8953 40.9237 65.8593C40.8877 65.8232 40.8697 65.7781 40.8697 65.724V54.7421C40.8697 54.688 40.8877 54.6429 40.9237 54.6068C40.9688 54.5707 41.0183 54.5527 41.0723 54.5527H42.9638C43.0179 54.5527 43.0629 54.5707 43.0989 54.6068C43.135 54.6429 43.153 54.688 43.153 54.7421V58.3396C43.153 58.3666 43.1665 58.3847 43.1935 58.3937C43.2115 58.4117 43.225 58.4072 43.234 58.3802C43.6844 57.758 44.3464 57.447 45.2201 57.447ZM57.0689 60.8822C57.132 61.297 57.1545 61.7568 57.1365 62.2617C57.1275 62.388 57.0554 62.4511 56.9203 62.4511H51.9079C51.8448 62.4511 51.8268 62.4781 51.8538 62.5322C51.8808 62.7486 51.9394 62.965 52.0295 63.1814C52.3087 63.7945 52.8806 64.1011 53.7453 64.1011C54.4389 64.083 54.9838 63.799 55.3801 63.249C55.4251 63.1859 55.4747 63.1543 55.5287 63.1543C55.5647 63.1543 55.6008 63.1769 55.6368 63.222L56.8122 64.3716C56.8663 64.4257 56.8933 64.4753 56.8933 64.5203C56.8933 64.5384 56.8708 64.5789 56.8257 64.6421C56.4655 65.0929 56.0061 65.44 55.4477 65.6834C54.8892 65.9269 54.2722 66.0486 53.5967 66.0486C52.669 66.0486 51.8854 65.8367 51.2458 65.413C50.5973 64.9892 50.1335 64.3986 49.8543 63.6412C49.6291 63.1002 49.5165 62.3925 49.5165 61.5179C49.5165 60.9228 49.5976 60.3953 49.7597 59.9355C50.0029 59.1691 50.4352 58.5605 51.0567 58.1097C51.6782 57.6498 52.4168 57.4199 53.2724 57.4199C54.3533 57.4199 55.2225 57.7355 55.88 58.3666C56.5285 58.9978 56.9248 59.8363 57.0689 60.8822ZM53.286 59.408C52.6104 59.408 52.1646 59.7281 51.9484 60.3683C51.9034 60.5035 51.8628 60.6748 51.8268 60.8822C51.8268 60.9363 51.8538 60.9634 51.9079 60.9634H54.7181C54.7811 60.9634 54.8036 60.9363 54.7856 60.8822C54.7316 60.5666 54.7046 60.4134 54.7046 60.4224C54.6055 60.0978 54.4344 59.8498 54.1912 59.6785C53.948 59.4982 53.6462 59.408 53.286 59.408ZM61.7571 66.0216C61.0275 66.0216 60.3925 65.9224 59.8521 65.724C59.3117 65.5166 58.8929 65.2281 58.5956 64.8584C58.2984 64.4888 58.1498 64.074 58.1498 63.6142V63.4519C58.1498 63.3978 58.1723 63.3482 58.2173 63.3031C58.2534 63.2671 58.2984 63.249 58.3524 63.249H60.1494C60.2034 63.249 60.2484 63.2671 60.2845 63.3031C60.3205 63.3482 60.3385 63.3978 60.3385 63.4519V63.4654C60.3385 63.6998 60.4736 63.9027 60.7438 64.074C61.005 64.2363 61.3383 64.3175 61.7436 64.3175C62.1039 64.3175 62.4011 64.2453 62.6353 64.1011C62.8605 63.9568 62.9731 63.7765 62.9731 63.5601C62.9731 63.3617 62.874 63.2175 62.6758 63.1273C62.4867 63.0281 62.1669 62.9244 61.7166 62.8162C61.2122 62.681 60.8159 62.5548 60.5277 62.4375C59.8341 62.2031 59.2802 61.9101 58.8658 61.5584C58.4605 61.2158 58.2579 60.7199 58.2579 60.0707C58.2579 59.2683 58.5686 58.6326 59.1901 58.1638C59.8116 57.6949 60.6357 57.4605 61.6625 57.4605C62.3471 57.4605 62.9506 57.5687 63.473 57.7851C63.9954 58.0105 64.3962 58.3216 64.6754 58.7183C64.9636 59.124 65.1078 59.5793 65.1078 60.0843C65.1078 60.1384 65.0897 60.1834 65.0537 60.2195C65.0177 60.2646 64.9727 60.2871 64.9186 60.2871H63.1757C63.1217 60.2871 63.0767 60.2646 63.0406 60.2195C63.0046 60.1834 62.9866 60.1384 62.9866 60.0843C62.9866 59.8498 62.865 59.6515 62.6218 59.4892C62.3786 59.3269 62.0589 59.2457 61.6625 59.2457C61.3023 59.2457 61.0095 59.3089 60.7844 59.4351C60.5592 59.5703 60.4466 59.7507 60.4466 59.9761C60.4466 60.1925 60.5547 60.3548 60.7708 60.463C60.996 60.5712 61.3653 60.6839 61.8787 60.8011C62.0048 60.8371 62.1399 60.8732 62.284 60.9093C62.4372 60.9453 62.5993 60.9904 62.7704 61.0445C63.545 61.2699 64.153 61.563 64.5944 61.9236C65.0357 62.2752 65.2564 62.7937 65.2564 63.4789C65.2564 64.2814 64.9411 64.908 64.3106 65.3589C63.6801 65.8007 62.829 66.0216 61.7571 66.0216ZM71.3362 59.2052C71.3362 59.2593 71.3181 59.3089 71.2821 59.3539C71.2461 59.39 71.2011 59.408 71.147 59.408H69.5798C69.5257 59.408 69.4987 59.4351 69.4987 59.4892V62.9244C69.4987 63.2851 69.5753 63.5511 69.7284 63.7224C69.8725 63.8937 70.1067 63.9793 70.431 63.9793H70.9579C71.0119 63.9793 71.0615 63.9974 71.1065 64.0334C71.1425 64.0785 71.1605 64.1281 71.1605 64.1822V65.724C71.1605 65.8412 71.093 65.9089 70.9579 65.9269C70.5075 65.9539 70.1833 65.9675 69.9851 65.9675C69.0934 65.9675 68.4269 65.8187 67.9855 65.5212C67.5352 65.2236 67.3055 64.6601 67.2965 63.8306V59.4892C67.2965 59.4351 67.2695 59.408 67.2154 59.408H66.2967C66.2427 59.408 66.1976 59.39 66.1616 59.3539C66.1166 59.3089 66.094 59.2593 66.094 59.2052V57.7716C66.094 57.7175 66.1166 57.6679 66.1616 57.6228C66.1976 57.5867 66.2427 57.5687 66.2967 57.5687H67.2154C67.2695 57.5687 67.2965 57.5416 67.2965 57.4875V55.5535C67.2965 55.4994 67.3145 55.4544 67.3505 55.4183C67.3956 55.3822 67.4451 55.3642 67.4991 55.3642H69.3096C69.3636 55.3642 69.4086 55.3822 69.4447 55.4183C69.4807 55.4544 69.4987 55.4994 69.4987 55.5535V57.4875C69.4987 57.5416 69.5257 57.5687 69.5798 57.5687H71.147C71.2011 57.5687 71.2461 57.5867 71.2821 57.6228C71.3181 57.6679 71.3362 57.7175 71.3362 57.7716V59.2052ZM80.2262 66.0486C79.3885 66.0486 78.6544 65.8863 78.0239 65.5617C77.3934 65.2371 76.9025 64.7773 76.5513 64.1822C76.2 63.5962 76.0244 62.9199 76.0244 62.1535V54.7421C76.0244 54.688 76.0424 54.6429 76.0784 54.6068C76.1144 54.5707 76.1595 54.5527 76.2135 54.5527H78.1185C78.1725 54.5527 78.2176 54.5707 78.2536 54.6068C78.2896 54.6429 78.3077 54.688 78.3077 54.7421V62.1671C78.3077 62.7351 78.4833 63.1949 78.8346 63.5466C79.1858 63.8982 79.6497 64.074 80.2262 64.074C80.7936 64.074 81.253 63.8982 81.6043 63.5466C81.9555 63.1949 82.1312 62.7351 82.1312 62.1671V54.7421C82.1312 54.688 82.1492 54.6429 82.1852 54.6068C82.2302 54.5707 82.2798 54.5527 82.3338 54.5527H84.2253C84.2794 54.5527 84.3244 54.5707 84.3604 54.6068C84.3964 54.6429 84.4145 54.688 84.4145 54.7421V62.1535C84.4145 62.9199 84.2388 63.5962 83.8876 64.1822C83.5363 64.7773 83.0454 65.2371 82.4149 65.5617C81.7844 65.8863 81.0548 66.0486 80.2262 66.0486ZM89.481 66.0216C88.7514 66.0216 88.1164 65.9224 87.576 65.724C87.0355 65.5166 86.6167 65.2281 86.3195 64.8584C86.0222 64.4888 85.8736 64.074 85.8736 63.6142V63.4519C85.8736 63.3978 85.8961 63.3482 85.9412 63.3031C85.9772 63.2671 86.0222 63.249 86.0763 63.249H87.8732C87.9272 63.249 87.9723 63.2671 88.0083 63.3031C88.0443 63.3482 88.0623 63.3978 88.0623 63.4519V63.4654C88.0623 63.6998 88.1974 63.9027 88.4677 64.074C88.7289 64.2363 89.0621 64.3175 89.4674 64.3175C89.8277 64.3175 90.125 64.2453 90.3591 64.1011C90.5843 63.9568 90.6969 63.7765 90.6969 63.5601C90.6969 63.3617 90.5978 63.2175 90.3997 63.1273C90.2105 63.0281 89.8908 62.9244 89.4404 62.8162C88.936 62.681 88.5397 62.5548 88.2515 62.4375C87.5579 62.2031 87.004 61.9101 86.5897 61.5584C86.1843 61.2158 85.9817 60.7199 85.9817 60.0707C85.9817 59.2683 86.2924 58.6326 86.9139 58.1638C87.5354 57.6949 88.3596 57.4605 89.3864 57.4605C90.0709 57.4605 90.6744 57.5687 91.1968 57.7851C91.7192 58.0105 92.12 58.3216 92.3992 58.7183C92.6875 59.124 92.8316 59.5793 92.8316 60.0843C92.8316 60.1384 92.8136 60.1834 92.7775 60.2195C92.7415 60.2646 92.6965 60.2871 92.6424 60.2871H90.8996C90.8455 60.2871 90.8005 60.2646 90.7645 60.2195C90.7284 60.1834 90.7104 60.1384 90.7104 60.0843C90.7104 59.8498 90.5888 59.6515 90.3456 59.4892C90.1024 59.3269 89.7827 59.2457 89.3864 59.2457C89.0261 59.2457 88.7334 59.3089 88.5082 59.4351C88.283 59.5703 88.1704 59.7507 88.1704 59.9761C88.1704 60.1925 88.2785 60.3548 88.4947 60.463C88.7198 60.5712 89.0891 60.6839 89.6025 60.8011C89.7286 60.8371 89.8638 60.8732 90.0079 60.9093C90.161 60.9453 90.3231 60.9904 90.4943 61.0445C91.2689 61.2699 91.8768 61.563 92.3182 61.9236C92.7595 62.2752 92.9802 62.7937 92.9802 63.4789C92.9802 64.2814 92.665 64.908 92.0345 65.3589C91.404 65.8007 90.5528 66.0216 89.481 66.0216ZM101.668 60.8822C101.731 61.297 101.753 61.7568 101.735 62.2617C101.726 62.388 101.654 62.4511 101.519 62.4511H96.52C96.4479 62.4511 96.4254 62.4781 96.4524 62.5322C96.4795 62.7486 96.538 62.965 96.6281 63.1814C96.9073 63.7945 97.4792 64.1011 98.3439 64.1011C99.0375 64.083 99.5824 63.799 99.9787 63.249C100.024 63.1859 100.073 63.1543 100.127 63.1543C100.163 63.1543 100.204 63.1769 100.249 63.222L101.411 64.3716C101.465 64.4257 101.492 64.4753 101.492 64.5203C101.492 64.5384 101.469 64.5789 101.424 64.6421C101.073 65.0929 100.614 65.44 100.046 65.6834C99.4878 65.9269 98.8708 66.0486 98.1953 66.0486C97.2676 66.0486 96.484 65.8367 95.8445 65.413C95.196 64.9892 94.7321 64.3986 94.4529 63.6412C94.2277 63.1002 94.1151 62.3925 94.1151 61.5179C94.1151 60.9228 94.1962 60.3953 94.3583 59.9355C94.6105 59.1691 95.0473 58.5605 95.6688 58.1097C96.2903 57.6498 97.0244 57.4199 97.8711 57.4199C98.9519 57.4199 99.8211 57.7355 100.479 58.3666C101.136 58.9978 101.532 59.8363 101.668 60.8822ZM97.8981 59.408C97.2135 59.408 96.7632 59.7281 96.547 60.3683C96.502 60.5035 96.466 60.6748 96.4389 60.8822C96.4389 60.9363 96.466 60.9634 96.52 60.9634H99.3167C99.3797 60.9634 99.4023 60.9363 99.3842 60.8822C99.3302 60.5666 99.3032 60.4134 99.3032 60.4224C99.2041 60.0978 99.033 59.8498 98.7898 59.6785C98.5466 59.4982 98.2494 59.408 97.8981 59.408ZM107.301 57.4605C107.689 57.4605 107.995 57.5371 108.22 57.6904C108.31 57.7265 108.342 57.8076 108.315 57.9339L107.977 59.7732C107.968 59.9084 107.891 59.949 107.747 59.8949C107.585 59.8408 107.396 59.8138 107.18 59.8138C107.099 59.8138 106.982 59.8228 106.829 59.8408C106.441 59.8769 106.113 60.0212 105.842 60.2736C105.572 60.5261 105.437 60.8642 105.437 61.288V65.724C105.437 65.7781 105.414 65.8232 105.369 65.8593C105.333 65.8953 105.288 65.9134 105.234 65.9134H103.343C103.289 65.9134 103.244 65.8953 103.208 65.8593C103.163 65.8232 103.14 65.7781 103.14 65.724V57.7716C103.14 57.7175 103.163 57.6679 103.208 57.6228C103.244 57.5867 103.289 57.5687 103.343 57.5687H105.234C105.288 57.5687 105.333 57.5867 105.369 57.6228C105.414 57.6679 105.437 57.7175 105.437 57.7716V58.3802C105.437 58.4162 105.446 58.4388 105.464 58.4478C105.482 58.4568 105.5 58.4523 105.518 58.4343C105.959 57.7851 106.554 57.4605 107.301 57.4605Z" fill="#252530"/>
<path d="M44.7742 103.079C44.0717 103.079 43.4592 102.966 42.9368 102.741C42.4144 102.515 42.0091 102.2 41.7208 101.794C41.4416 101.388 41.302 100.91 41.302 100.36V100.022C41.302 99.9773 41.32 99.9367 41.356 99.9007C41.3831 99.8736 41.4191 99.8601 41.4641 99.8601H42.6666C42.7116 99.8601 42.7521 99.8736 42.7882 99.9007C42.8152 99.9367 42.8287 99.9773 42.8287 100.022V100.279C42.8287 100.694 43.0134 101.037 43.3826 101.307C43.7519 101.587 44.2563 101.726 44.8958 101.726C45.4453 101.726 45.8596 101.609 46.1388 101.375C46.418 101.14 46.5576 100.838 46.5576 100.469C46.5576 100.216 46.4811 99.9998 46.328 99.8195C46.1748 99.6482 45.9587 99.4904 45.6795 99.3462C45.3912 99.2019 44.9634 99.0216 44.3959 98.8052C43.7564 98.5707 43.2385 98.3498 42.8422 98.1425C42.4459 97.9351 42.1171 97.6511 41.8559 97.2904C41.5857 96.9388 41.4506 96.497 41.4506 95.965C41.4506 95.1716 41.7388 94.5449 42.3153 94.0851C42.8918 93.6253 43.6619 93.3953 44.6256 93.3953C45.3011 93.3953 45.9001 93.5125 46.4225 93.747C46.9359 93.9814 47.3368 94.3105 47.625 94.7343C47.9132 95.149 48.0573 95.6314 48.0573 96.1814V96.4113C48.0573 96.4564 48.0393 96.497 48.0033 96.533C47.9763 96.5601 47.9402 96.5736 47.8952 96.5736H46.6792C46.6342 96.5736 46.5982 96.5601 46.5712 96.533C46.5351 96.497 46.5171 96.4564 46.5171 96.4113V96.2625C46.5171 95.8388 46.346 95.4826 46.0037 95.1941C45.6524 94.8966 45.1705 94.7478 44.5581 94.7478C44.0627 94.7478 43.6799 94.8515 43.4097 95.0589C43.1304 95.2662 42.9908 95.5593 42.9908 95.938C42.9908 96.2084 43.0629 96.4294 43.207 96.6007C43.3511 96.772 43.5673 96.9252 43.8555 97.0605C44.1437 97.2048 44.5896 97.3851 45.1931 97.6015C45.8326 97.8449 46.346 98.0658 46.7333 98.2642C47.1116 98.4625 47.4403 98.7375 47.7196 99.0892C47.9898 99.4498 48.1249 99.8961 48.1249 100.428C48.1249 101.24 47.8231 101.884 47.2197 102.362C46.6252 102.84 45.8101 103.079 44.7742 103.079ZM53.5021 93.49C54.0696 93.49 54.5694 93.6072 55.0018 93.8416C55.4341 94.0761 55.7674 94.4052 56.0016 94.8289C56.2448 95.2617 56.3664 95.7576 56.3664 96.3166C56.3664 96.8666 56.2448 97.3535 56.0016 97.7773C55.7584 98.2011 55.4161 98.5257 54.9748 98.7511C54.5244 98.9855 54.0065 99.1027 53.421 99.1027H51.2593C51.2143 99.1027 51.1918 99.1252 51.1918 99.1703V102.808C51.1918 102.854 51.1783 102.89 51.1513 102.917C51.1152 102.953 51.0747 102.971 51.0297 102.971H49.7867C49.7416 102.971 49.7056 102.953 49.6786 102.917C49.6426 102.89 49.6246 102.854 49.6246 102.808V93.6523C49.6246 93.6072 49.6426 93.5666 49.6786 93.5306C49.7056 93.5035 49.7416 93.49 49.7867 93.49H53.5021ZM53.2724 97.8314C53.7318 97.8314 54.1011 97.6962 54.3803 97.4257C54.6595 97.1552 54.7991 96.799 54.7991 96.3572C54.7991 95.9064 54.6595 95.5412 54.3803 95.2617C54.1011 94.9822 53.7318 94.8425 53.2724 94.8425H51.2593C51.2143 94.8425 51.1918 94.865 51.1918 94.9101V97.7638C51.1918 97.8089 51.2143 97.8314 51.2593 97.8314H53.2724ZM63.0541 102.971C62.9641 102.971 62.901 102.93 62.865 102.849L61.0816 98.9539C61.0636 98.9179 61.0365 98.8998 61.0005 98.8998H59.3792C59.3342 98.8998 59.3117 98.9224 59.3117 98.9675V102.808C59.3117 102.854 59.2937 102.89 59.2576 102.917C59.2306 102.953 59.1946 102.971 59.1496 102.971H57.9066C57.8615 102.971 57.8255 102.953 57.7985 102.917C57.7625 102.89 57.7445 102.854 57.7445 102.808V93.6658C57.7445 93.6207 57.7625 93.5847 57.7985 93.5576C57.8255 93.5216 57.8615 93.5035 57.9066 93.5035H61.622C62.1714 93.5035 62.6578 93.6162 63.0812 93.8416C63.5045 94.0761 63.8332 94.4007 64.0674 94.8154C64.3016 95.2392 64.4187 95.7216 64.4187 96.2625C64.4187 96.8847 64.2611 97.4121 63.9458 97.8449C63.6216 98.2867 63.1757 98.5933 62.6083 98.7646C62.5903 98.7646 62.5768 98.7736 62.5677 98.7916C62.5587 98.8097 62.5587 98.8277 62.5677 98.8457L64.4727 102.781C64.4908 102.817 64.4998 102.845 64.4998 102.863C64.4998 102.935 64.4502 102.971 64.3512 102.971H63.0541ZM59.3792 94.856C59.3342 94.856 59.3117 94.8785 59.3117 94.9236V97.615C59.3117 97.6601 59.3342 97.6826 59.3792 97.6826H61.4058C61.8382 97.6826 62.1849 97.5519 62.4462 97.2904C62.7164 97.038 62.8515 96.6998 62.8515 96.2761C62.8515 95.8523 62.7164 95.5097 62.4462 95.2482C62.1849 94.9867 61.8382 94.856 61.4058 94.856H59.3792ZM66.1886 102.971C66.1436 102.971 66.103 102.953 66.067 102.917C66.04 102.89 66.0265 102.854 66.0265 102.808V93.6658C66.0265 93.6207 66.04 93.5847 66.067 93.5576C66.103 93.5216 66.1436 93.5035 66.1886 93.5035H67.4316C67.4766 93.5035 67.5126 93.5216 67.5397 93.5576C67.5757 93.5847 67.5937 93.6207 67.5937 93.6658V102.808C67.5937 102.854 67.5757 102.89 67.5397 102.917C67.5126 102.953 67.4766 102.971 67.4316 102.971H66.1886ZM75.0651 93.6658C75.0651 93.6207 75.0831 93.5847 75.1191 93.5576C75.1461 93.5216 75.1822 93.5035 75.2272 93.5035H76.4702C76.5152 93.5035 76.5558 93.5216 76.5918 93.5576C76.6188 93.5847 76.6323 93.6207 76.6323 93.6658V102.808C76.6323 102.854 76.6188 102.89 76.5918 102.917C76.5558 102.953 76.5152 102.971 76.4702 102.971H75.2677C75.1777 102.971 75.1146 102.935 75.0786 102.863L71.1875 96.4789C71.1695 96.4519 71.1515 96.4384 71.1335 96.4384C71.1155 96.4474 71.1065 96.4699 71.1065 96.506L71.1335 102.808C71.1335 102.854 71.1155 102.89 71.0795 102.917C71.0524 102.953 71.0164 102.971 70.9714 102.971H69.7284C69.6834 102.971 69.6473 102.953 69.6203 102.917C69.5843 102.89 69.5663 102.854 69.5663 102.808V93.6658C69.5663 93.6207 69.5843 93.5847 69.6203 93.5576C69.6473 93.5216 69.6834 93.5035 69.7284 93.5035H70.9308C71.0209 93.5035 71.084 93.5396 71.12 93.6117L74.9975 99.9953C75.0155 100.022 75.0336 100.031 75.0516 100.022C75.0696 100.022 75.0786 100.004 75.0786 99.9683L75.0651 93.6658ZM81.7664 103.079C81.0908 103.079 80.4964 102.948 79.983 102.687C79.4696 102.416 79.0732 102.038 78.794 101.551C78.5148 101.064 78.3752 100.505 78.3752 99.8736V96.6007C78.3752 95.9605 78.5148 95.397 78.794 94.9101C79.0732 94.4322 79.4696 94.058 79.983 93.7875C80.4964 93.5261 81.0908 93.3953 81.7664 93.3953C82.4329 93.3953 83.0229 93.5261 83.5363 93.7875C84.0407 94.049 84.4325 94.4052 84.7117 94.856C84.9909 95.3068 85.1305 95.8162 85.1305 96.3843V96.4925C85.1305 96.5375 85.117 96.5736 85.09 96.6007C85.054 96.6367 85.0134 96.6548 84.9684 96.6548H83.7389C83.6939 96.6548 83.6579 96.6367 83.6308 96.6007C83.5948 96.5736 83.5768 96.5375 83.5768 96.4925V96.4248C83.5768 95.938 83.4102 95.5367 83.0769 95.2212C82.7526 94.9056 82.3158 94.7478 81.7664 94.7478C81.2169 94.7478 80.7756 94.9146 80.4423 95.2482C80.1091 95.5728 79.9424 96.0056 79.9424 96.5466V99.9277C79.9424 100.469 80.1181 100.906 80.4693 101.24C80.8206 101.564 81.2755 101.726 81.8339 101.726C82.3743 101.726 82.8022 101.582 83.1174 101.294C83.4237 101.014 83.5768 100.626 83.5768 100.131V99.2921C83.5768 99.247 83.5543 99.2244 83.5092 99.2244H81.8474C81.8024 99.2244 81.7619 99.2064 81.7258 99.1703C81.6988 99.1433 81.6853 99.1072 81.6853 99.0621V98.0613C81.6853 98.0162 81.6988 97.9802 81.7258 97.9531C81.7619 97.9171 81.8024 97.899 81.8474 97.899H84.9684C85.0134 97.899 85.054 97.9171 85.09 97.9531C85.117 97.9802 85.1305 98.0162 85.1305 98.0613V99.7925C85.1305 100.829 84.8288 101.636 84.2253 102.213C83.6128 102.79 82.7932 103.079 81.7664 103.079Z" fill="white"/>
<path d="M45.9767 127.396C45.9497 127.423 45.9407 127.45 45.9497 127.477C45.9677 127.504 45.9948 127.518 46.0308 127.518H51.3405C51.4035 127.518 51.4576 127.54 51.5026 127.585C51.5566 127.631 51.5837 127.685 51.5837 127.748V129.655C51.5837 129.718 51.5566 129.772 51.5026 129.817C51.4576 129.862 51.4035 129.885 51.3405 129.885H42.5315C42.4595 129.885 42.4009 129.862 42.3559 129.817C42.3109 129.772 42.2883 129.718 42.2883 129.655V127.842C42.2883 127.725 42.3289 127.626 42.4099 127.545C43.0494 126.923 43.7025 126.242 44.369 125.503C45.0355 124.763 45.4543 124.304 45.6255 124.123C45.9858 123.69 46.355 123.276 46.7333 122.879C47.9223 121.563 48.5167 120.584 48.5167 119.944C48.5167 119.484 48.3546 119.106 48.0304 118.808C47.7061 118.52 47.2828 118.375 46.7604 118.375C46.238 118.375 45.8146 118.52 45.4904 118.808C45.1571 119.106 44.9905 119.498 44.9905 119.985V120.472C44.9905 120.535 44.9679 120.589 44.9229 120.634C44.8779 120.679 44.8238 120.701 44.7608 120.701H42.4505C42.3874 120.701 42.3334 120.679 42.2883 120.634C42.2343 120.589 42.2073 120.535 42.2073 120.472V119.552C42.2523 118.849 42.4775 118.222 42.8828 117.672C43.2881 117.131 43.824 116.716 44.4906 116.428C45.1661 116.139 45.9227 115.995 46.7604 115.995C47.6881 115.995 48.4942 116.171 49.1788 116.522C49.8633 116.865 50.3902 117.329 50.7595 117.915C51.1378 118.51 51.327 119.164 51.327 119.876C51.327 120.426 51.1873 120.99 50.9081 121.567C50.6379 122.144 50.2281 122.766 49.6787 123.433C49.2733 123.938 48.8365 124.443 48.3681 124.948C47.8998 125.444 47.2017 126.161 46.274 127.099L45.9767 127.396ZM57.9472 130.101C56.506 130.101 55.3711 129.7 54.5425 128.897C53.7048 128.095 53.286 126.999 53.286 125.611V120.431C53.286 119.07 53.7048 117.992 54.5425 117.199C55.3711 116.396 56.506 115.995 57.9472 115.995C59.3793 115.995 60.5187 116.396 61.3654 117.199C62.203 117.992 62.6218 119.07 62.6218 120.431V125.611C62.6218 126.999 62.203 128.095 61.3654 128.897C60.5187 129.7 59.3793 130.101 57.9472 130.101ZM57.9472 127.734C58.5326 127.734 58.9965 127.554 59.3388 127.193C59.69 126.833 59.8657 126.35 59.8657 125.746V120.35C59.8657 119.755 59.69 119.277 59.3388 118.916C58.9965 118.556 58.5326 118.375 57.9472 118.375C57.3707 118.375 56.9114 118.556 56.5691 118.916C56.2178 119.277 56.0422 119.755 56.0422 120.35V125.746C56.0422 126.35 56.2178 126.833 56.5691 127.193C56.9114 127.554 57.3707 127.734 57.9472 127.734ZM68.1072 127.396C68.0801 127.423 68.0756 127.45 68.0937 127.477C68.1027 127.504 68.1297 127.518 68.1747 127.518H73.4844C73.5475 127.518 73.6015 127.54 73.6465 127.585C73.6916 127.631 73.7141 127.685 73.7141 127.748V129.655C73.7141 129.718 73.6916 129.772 73.6465 129.817C73.6015 129.862 73.5475 129.885 73.4844 129.885H64.662C64.5989 129.885 64.5449 129.862 64.4998 129.817C64.4548 129.772 64.4323 129.718 64.4323 129.655V127.842C64.4323 127.725 64.4683 127.626 64.5404 127.545C65.1889 126.923 65.8419 126.242 66.4994 125.503C67.1659 124.763 67.5848 124.304 67.7559 124.123C68.1252 123.69 68.499 123.276 68.8773 122.879C70.0662 121.563 70.6607 120.584 70.6607 119.944C70.6607 119.484 70.4986 119.106 70.1743 118.808C69.841 118.52 69.4132 118.375 68.8908 118.375C68.3684 118.375 67.945 118.52 67.6208 118.808C67.2965 119.106 67.1344 119.498 67.1344 119.985V120.472C67.1344 120.535 67.1119 120.589 67.0668 120.634C67.0218 120.679 66.9633 120.701 66.8912 120.701H64.5809C64.5178 120.701 64.4638 120.679 64.4188 120.634C64.3737 120.589 64.3512 120.535 64.3512 120.472V119.552C64.3872 118.849 64.6079 118.222 65.0132 117.672C65.4186 117.131 65.959 116.716 66.6345 116.428C67.31 116.139 68.0621 115.995 68.8908 115.995C69.8185 115.995 70.6247 116.171 71.3092 116.522C72.0027 116.865 72.5342 117.329 72.9034 117.915C73.2727 118.51 73.4574 119.164 73.4574 119.876C73.4574 120.426 73.3223 120.99 73.0521 121.567C72.7728 122.144 72.3585 122.766 71.8091 123.433C71.4038 123.938 70.9669 124.443 70.4986 124.948C70.0302 125.444 69.3321 126.161 68.4044 127.099L68.1072 127.396ZM83.5904 123.339C83.8516 123.934 83.9822 124.624 83.9822 125.408C83.9822 126.12 83.8651 126.774 83.6309 127.369C83.3156 128.208 82.7887 128.861 82.0501 129.33C81.3116 129.808 80.4379 130.047 79.4291 130.047C78.4383 130.047 77.5691 129.799 76.8215 129.303C76.0739 128.798 75.5335 128.122 75.2003 127.274C75.0201 126.77 74.9165 126.22 74.8895 125.624C74.8895 125.471 74.9661 125.395 75.1192 125.395H77.443C77.5961 125.395 77.6727 125.471 77.6727 125.624C77.7267 126.057 77.7988 126.377 77.8889 126.585C78.006 126.927 78.1996 127.193 78.4698 127.383C78.731 127.572 79.0463 127.667 79.4156 127.667C80.1451 127.667 80.6495 127.347 80.9288 126.706C81.1089 126.319 81.199 125.863 81.199 125.34C81.199 124.718 81.0999 124.213 80.9017 123.826C80.6045 123.213 80.1046 122.906 79.4021 122.906C79.2579 122.906 79.1048 122.947 78.9427 123.028C78.7896 123.118 78.6004 123.24 78.3753 123.393C78.3212 123.429 78.2717 123.447 78.2266 123.447C78.1456 123.447 78.087 123.411 78.051 123.339L76.8891 121.702C76.8621 121.666 76.8486 121.621 76.8486 121.567C76.8486 121.486 76.8756 121.423 76.9296 121.378L80.0371 118.646C80.0641 118.619 80.0776 118.592 80.0776 118.565C80.0686 118.538 80.0461 118.524 80.01 118.524H75.4029C75.3399 118.524 75.2813 118.501 75.2273 118.456C75.1822 118.411 75.1597 118.357 75.1597 118.294V116.387C75.1597 116.324 75.1822 116.27 75.2273 116.225C75.2813 116.18 75.3399 116.157 75.4029 116.157H83.5633C83.6354 116.157 83.6939 116.18 83.739 116.225C83.784 116.27 83.8065 116.324 83.8065 116.387V118.551C83.8065 118.65 83.7615 118.749 83.6714 118.849L81.1044 121.202C81.0774 121.229 81.0684 121.251 81.0774 121.27C81.0774 121.297 81.1044 121.31 81.1584 121.31C82.2933 121.535 83.104 122.212 83.5904 123.339Z" fill="#252530"/>
</svg>
